; Engine configuration file.
; It's best edited using the editor UI and not directly,
; since the parameters that go here are not all obvious.
;
; Format:
;   [section] ; section goes between []
;   param=value ; assign values to parameters

config_version=5

[application]

config/name="LudumDare55"
run/main_scene="res://scenes/main_scene.tscn"
config/features=PackedStringArray("4.2", "GL Compatibility")
config/icon="res://icon.svg"
run/layer_6="human_dead"

[autoload]

Draw="*res://scripts/Editor/Draw.gd"

[layer_names]

3d_physics/layer_1="environment"
3d_navigation/layer_1="SmallDemon"
3d_physics/layer_2="demon"
3d_physics/layer_3="human"
3d_physics/layer_4="demon_attack"
3d_physics/layer_5="door"
3d_physics/layer_6="human_dead"
3d_physics/layer_7="object"
3d_physics/layer_8="destroyable_walls"

[navigation]

3d/default_cell_size=0.2
3d/default_cell_height=0.2
3d/use_edge_connections=false

[rendering]

textures/canvas_textures/default_texture_filter=0
renderer/rendering_method="gl_compatibility"
renderer/rendering_method.mobile="gl_compatibility"
textures/default_filters/use_nearest_mipmap_filter=true
textures/default_filters/anisotropic_filtering_level=0
