[gd_resource type="Resource" script_class="Link_HumanDie" load_steps=2 format=3 uid="uid://byxju6v8c5yy7"]

[ext_resource type="Script" path="res://scripts/Link_HumanDie.gd" id="1_amjh2"]

[resource]
script = ExtResource("1_amjh2")
