[gd_scene load_steps=2 format=3 uid="uid://d1k42qc6drsb"]

[ext_resource type="PackedScene" uid="uid://l306tj7qd4w1" path="res://meshes/SM_Bb.glb" id="1_u4uq6"]

[node name="Blackboard" type="Node3D"]

[node name="SM_Bb" parent="." instance=ExtResource("1_u4uq6")]

[editable path="SM_Bb"]
