[gd_scene load_steps=5 format=3 uid="uid://bst1kfap30kpg"]

[sub_resource type="CapsuleShape3D" id="CapsuleShape3D_d635f"]

[sub_resource type="StandardMaterial3D" id="StandardMaterial3D_2ovyc"]
albedo_color = Color(1, 0, 1, 1)

[sub_resource type="CapsuleMesh" id="CapsuleMesh_2q4q5"]
material = SubResource("StandardMaterial3D_2ovyc")

[sub_resource type="CylinderShape3D" id="CylinderShape3D_727pu"]
radius = 5.535

[node name="Demon" type="CharacterBody3D"]
collision_mask = 3

[node name="CollisionShape3D" type="CollisionShape3D" parent="."]
transform = Transform3D(1, 0, 0, 0, 1, 0, 0, 0, 1, 0, 0.998052, 0)
shape = SubResource("CapsuleShape3D_d635f")

[node name="MeshInstance3D" type="MeshInstance3D" parent="CollisionShape3D"]
mesh = SubResource("CapsuleMesh_2q4q5")

[node name="Area3D" type="Area3D" parent="."]
transform = Transform3D(1, 0, 0, 0, 1, 0, 0, 0, 1, 0, 1.01598, 0)

[node name="CollisionShape3D" type="CollisionShape3D" parent="Area3D"]
shape = SubResource("CylinderShape3D_727pu")
