[gd_scene load_steps=4 format=3 uid="uid://dv0btcu15k1qy"]

[sub_resource type="BoxShape3D" id="BoxShape3D_pkda5"]
size = Vector3(100.054, 1, 100.558)

[sub_resource type="StandardMaterial3D" id="StandardMaterial3D_6lj6x"]
albedo_color = Color(0.286275, 0.352941, 0.435294, 1)

[sub_resource type="BoxMesh" id="BoxMesh_n5wyb"]
material = SubResource("StandardMaterial3D_6lj6x")
size = Vector3(100, 1, 100)

[node name="Ground" type="Node3D"]

[node name="StaticBody3D" type="StaticBody3D" parent="."]

[node name="CollisionShape3D" type="CollisionShape3D" parent="StaticBody3D"]
shape = SubResource("BoxShape3D_pkda5")

[node name="MeshInstance3D" type="MeshInstance3D" parent="StaticBody3D"]
mesh = SubResource("BoxMesh_n5wyb")
