[gd_scene format=3 uid="uid://bcqn073tvkuw8"]

[node name="StartScreen" type="Control"]
layout_mode = 3
anchors_preset = 15
anchor_right = 1.0
anchor_bottom = 1.0
grow_horizontal = 2
grow_vertical = 2

[node name="CenterContainer" type="CenterContainer" parent="."]
layout_mode = 1
anchors_preset = 15
anchor_right = 1.0
anchor_bottom = 1.0
grow_horizontal = 2
grow_vertical = 2

[node name="VBoxContainer" type="VBoxContainer" parent="."]
layout_mode = 1
anchors_preset = 8
anchor_left = 0.5
anchor_top = 0.5
anchor_right = 0.5
anchor_bottom = 0.5
offset_left = -125.0
offset_top = -89.0
offset_right = 75.0
offset_bottom = 69.0
grow_horizontal = 2
grow_vertical = 2
theme_override_constants/separation = 8

[node name="Start" type="Button" parent="VBoxContainer"]
custom_minimum_size = Vector2(200, 50)
layout_mode = 2
text = "Start"

[node name="Credits" type="Button" parent="VBoxContainer"]
custom_minimum_size = Vector2(200, 50)
layout_mode = 2
text = "Credits"

[node name="Quit" type="Button" parent="VBoxContainer"]
custom_minimum_size = Vector2(200, 50)
layout_mode = 2
text = "Quit"
